<?xml version='1.0' encoding='UTF-8' standalone='no'?>
    <svg xmlns='http://www.w3.org/2000/svg' xmlns:xlink='http://www.w3.org/1999/xlink' version='1.1'
    width='210.00mm' height='297.00mm' viewBox='0 0 210.00 297.00'>
<style type="text/css">
    path {
        fill: none;
        stroke-linecap: butt;
        stroke-linejoin: bevel;
        stroke-dasharray: none;
    }
    path.outer {
        stroke: #000000;
        stroke-dasharray: none;
        stroke-dashoffset: 0;
        stroke-width: 0.3;
        stroke-opacity: 1.0;
    }
    path.convex {
        stroke: #000000;
        stroke-dasharray: 0.50,1.00;
        stroke-dashoffset:0;
        stroke-width:0.2;
        stroke-opacity: 1.0
    }
    path.concave {
        stroke: #000000;
        stroke-dasharray: 1.00,0.50,0.20,0.50;
        stroke-dashoffset: 0;
        stroke-width: 0.2;
        stroke-opacity: 1.0
    }
    path.freestyle {
        stroke: #000000;
        stroke-dasharray: none;
        stroke-dashoffset: 0;
        stroke-width: 0.2;
        stroke-opacity: 1.0
    }
    path.outer_background {
        stroke: #ffffff;
        stroke-opacity: 1.0;
        stroke-width: 0.5
    }
    path.inner_background {
        stroke: #ffffff;
        stroke-opacity: 1.0;
        stroke-width: 0.2
    }
    path.sticker {
        fill: #e5e5e5;
        stroke: none;
        fill-opacity: 1.0;
    }
    path.arrow {
        fill: #000;
    }
    text {
        font-style: normal;
        fill: #000000;
        fill-opacity: 1.0;
        stroke: none;
    }
    text, tspan {
        text-anchor:middle;
    }
    </style>
<g>
<path class='sticker' d=' M 116.000013 124.857148 L 118.886763 119.857153 L 127.398977 119.857153 L 130.285727 124.857148 Z
M 116.000006 210.571429 L 118.886763 205.571426 L 153.142864 205.571448 L 173.142860 210.571459 Z
M 130.285719 210.571429 L 127.398970 215.571424 L 118.886756 215.571424 L 116.000006 210.571429 Z
M 73.142873 81.999993 L 76.029623 76.999998 L 84.541837 76.999998 L 87.428587 81.999993 Z
M 101.714293 224.857142 L 106.714295 227.743899 L 106.714295 236.256113 L 101.714293 239.142871 Z
M 116.000006 224.857142 L 113.113256 229.857137 L 104.601042 229.857137 L 101.714293 224.857142 Z
M 73.142873 281.999996 L 70.256123 286.999991 L 35.999993 286.999991 L 15.999997 281.999996 Z
M 101.714293 239.142871 L 98.827543 244.142866 L 90.315321 244.142866 L 87.428572 239.142856 Z
M 87.428587 96.285721 L 90.315336 91.285711 L 98.827558 91.285711 L 101.714307 96.285721 Z
M 130.285727 124.857148 L 135.285730 127.743891 L 135.285730 136.256119 L 130.285727 139.142862 Z
M 101.714307 110.571435 L 104.601057 105.571439 L 113.113264 105.571439 L 116.000013 110.571435 Z
M 87.428572 253.428569 L 84.541822 258.428564 L 76.029608 258.428564 L 73.142858 253.428569 Z
M 101.714307 96.285721 L 106.714310 99.172464 L 106.714310 107.684677 L 101.714307 110.571435 Z
M 116.000013 110.571435 L 121.000016 113.458177 L 121.000016 121.970406 L 116.000013 124.857148 Z
M 130.285719 196.285715 L 135.285715 199.172473 L 135.285715 207.684672 L 130.285719 210.571429 Z
M 87.428572 239.142856 L 92.428574 242.029628 L 92.428574 250.541827 L 87.428572 253.428569 Z
M 15.999997 196.285708 L 18.886754 191.285705 L 68.142863 191.285713 L 73.142866 196.285715 Z
M 87.428587 81.999993 L 92.428589 84.886750 L 92.428589 93.398964 L 87.428587 96.285721 Z
M 73.142866 139.142862 L 68.142863 134.142866 L 68.142870 84.886750 L 73.142873 81.999993 Z '/>
<path class='convex' d=' M 116.000013 110.571435 L 101.714307 110.571435
M 116.000006 224.857142 L 173.142860 224.857172
M 116.000013 124.857148 L 116.000013 110.571435
M 73.142858 253.428569 L 15.999997 253.428569
M 87.428587 81.999993 L 73.142873 81.999993
M 73.142858 253.428569 L 73.142866 196.285715
M 87.428587 96.285721 L 87.428587 81.999993
M 73.142866 196.285715 L 15.999997 196.285708
M 130.285727 124.857148 L 116.000013 124.857148
M 130.285727 139.142862 L 73.142866 139.142862
M 130.285727 139.142862 L 130.285727 124.857148
M 73.142866 196.285715 L 130.285719 196.285715
M 73.142873 81.999993 L 73.142866 139.142862
M 73.142858 253.428569 L 87.428572 253.428569
M 130.285719 196.285715 L 130.285727 139.142862
M 87.428572 253.428569 L 87.428572 239.142856
M 116.000006 224.857142 L 116.000006 210.571429
M 144.571433 196.285723 L 144.571433 139.142862
M 73.142858 267.714282 L 15.999997 267.714282
M 87.428572 239.142856 L 101.714293 239.142871
M 116.000006 210.571429 L 130.285719 210.571429
M 116.000006 253.428584 L 173.142845 253.428599
M 101.714293 239.142871 L 101.714293 224.857142
M 101.714307 96.285721 L 87.428587 96.285721
M 101.714307 110.571435 L 101.714307 96.285721
M 101.714293 224.857142 L 116.000006 224.857142
M 130.285719 210.571429 L 130.285719 196.285715 '/>
<path class='concave' d=' M 116.000006 239.142871 L 173.142845 239.142885
M 15.999997 281.999996 L 73.142873 281.999996
M 173.142860 210.571459 L 116.000006 210.571429 '/>
<path class='outer' d=' M 104.601057 105.571439 L 113.113264 105.571439 L 116.000013 110.571435 L 121.000016 113.458177 L 121.000016 121.970406 L 116.000013 124.857148 L 118.886763 119.857153 L 127.398977 119.857153 L 130.285727 124.857148 L 135.285730 127.743891 L 135.285730 136.256119 L 130.285727 139.142862 L 144.571433 139.142862 L 158.857161 139.142862 L 158.857161 196.285708 L 144.571433 196.285723 L 130.285719 196.285715 L 135.285715 199.172473 L 135.285715 207.684672 L 130.285719 210.571429 L 127.398970 215.571424 L 118.886756 215.571424 L 116.000006 210.571429 L 118.886763 205.571426 L 153.142864 205.571448 L 173.142860 210.571459 L 173.142860 224.857172 L 173.142845 239.142885 L 173.142845 253.428599 L 173.142830 267.714297 L 116.000006 267.714297 L 116.000006 253.428584 L 116.000006 239.142871 L 116.000006 224.857142 L 113.113256 229.857137 L 104.601042 229.857137 L 101.714293 224.857142 L 106.714295 227.743899 L 106.714295 236.256113 L 101.714293 239.142871 L 98.827543 244.142866 L 90.315321 244.142866 L 87.428572 239.142856 L 92.428574 242.029628 L 92.428574 250.541827 L 87.428572 253.428569 L 84.541822 258.428564 L 76.029608 258.428564 L 73.142858 253.428569 L 73.142858 267.714282 L 73.142873 281.999996 L 70.256123 286.999991 L 35.999993 286.999991 L 15.999997 281.999996 L 15.999997 267.714282 L 15.999997 253.428569 L 15.999997 196.285708 L 18.886754 191.285705 L 68.142863 191.285713 L 73.142866 196.285715 L 73.142866 139.142862 L 68.142863 134.142866 L 68.142870 84.886750 L 73.142873 81.999993 L 76.029623 76.999998 L 84.541837 76.999998 L 87.428587 81.999993 L 92.428589 84.886750 L 92.428589 93.398964 L 87.428587 96.285721 L 90.315336 91.285711 L 98.827558 91.285711 L 101.714307 96.285721 L 106.714310 99.172464 L 106.714310 107.684677 L 101.714307 110.571435 Z '/>
<g><path transform='matrix(-5.000000 -0.000000 0.000000 -5.000000 151.714304 139.142862)' class='arrow' d='M 0 0 L 1 1 L 0 0.25 L -1 1 Z'/><text transform='translate(151.714304 136.642864)' style='font-size:5.00'><tspan>1</tspan></text></g>
<text transform='matrix(1.000000 0.000000 -0.000000 1.000000 123.142870 123.957148)' style='font-size:4.50'><tspan>1</tspan></text>
<g><path transform='matrix(0.000000 -5.000000 5.000000 0.000000 158.857161 167.714288)' class='arrow' d='M 0 0 L 1 1 L 0 0.25 L -1 1 Z'/><text transform='translate(163.357163 169.714285)' style='font-size:5.00'><tspan>2</tspan></text></g>
<text transform='matrix(1.000000 0.000001 -0.000001 1.000000 144.571433 209.671443)' style='font-size:4.50'><tspan>2</tspan></text>
<g><path transform='matrix(5.000000 0.000000 -0.000000 5.000000 144.571418 267.714297)' class='arrow' d='M 0 0 L 1 1 L 0 0.25 L -1 1 Z'/><text transform='translate(144.571418 274.214298)' style='font-size:5.00'><tspan>3</tspan></text></g>
<text transform='matrix(-1.000000 -0.000000 0.000000 -1.000000 44.571439 282.899996)' style='font-size:4.50'><tspan>3</tspan></text>
<g><path transform='matrix(-0.000000 5.000000 -5.000000 -0.000000 116.000006 260.571441)' class='arrow' d='M 0 0 L 1 1 L 0 0.25 L -1 1 Z'/><text transform='translate(111.500004 262.571441)' style='font-size:5.00'><tspan>4</tspan></text></g>
<text transform='matrix(-1.000000 -0.000000 0.000000 -1.000000 94.571436 240.042871)' style='font-size:4.50'><tspan>4</tspan></text>
<g><path transform='matrix(0.000000 -5.000000 5.000000 0.000000 173.142830 260.571441)' class='arrow' d='M 0 0 L 1 1 L 0 0.25 L -1 1 Z'/><text transform='translate(177.642832 262.571441)' style='font-size:5.00'><tspan>5</tspan></text></g>
<text transform='matrix(1.000000 0.000000 -0.000000 1.000000 94.571451 95.385721)' style='font-size:4.50'><tspan>5</tspan></text>
<g><path transform='matrix(0.000000 -5.000000 5.000000 0.000000 173.142860 217.714315)' class='arrow' d='M 0 0 L 1 1 L 0 0.25 L -1 1 Z'/><text transform='translate(177.642861 219.714312)' style='font-size:5.00'><tspan>6.</tspan></text></g>
<text transform='matrix(-0.000000 1.000000 -1.000000 -0.000000 116.900014 117.714291)' style='font-size:4.50'><tspan>6.</tspan></text>
<g><path transform='matrix(-0.000005 -5.000000 5.000000 -0.000005 73.142866 274.857139)' class='arrow' d='M 0 0 L 1 1 L 0 0.25 L -1 1 Z'/><text transform='translate(77.642867 276.857135)' style='font-size:5.00'><tspan>7</tspan></text></g>
<text transform='matrix(-0.000000 1.000000 -1.000000 -0.000000 88.328572 246.285727)' style='font-size:4.50'><tspan>7</tspan></text>
<g><path transform='matrix(-0.000000 5.000000 -5.000000 -0.000000 15.999997 274.857139)' class='arrow' d='M 0 0 L 1 1 L 0 0.25 L -1 1 Z'/><text transform='translate(11.499997 276.857140)' style='font-size:5.00'><tspan>8</tspan></text></g>
<text transform='matrix(-0.000000 1.000000 -1.000000 -0.000000 88.328587 89.142865)' style='font-size:4.50'><tspan>8</tspan></text>
</g>
</svg>
