# Created by FreeCAD <http://www.freecadweb.org>
v -20.000000 0.000000 10.000000
v -20.000000 0.000000 20.000000
v -40.000000 0.000000 20.000000
v -40.000000 0.000000 0.000000
v 0.000000 0.000000 0.000000
v 0.000000 0.000000 10.000000
v 0.000000 20.000000 10.000000
v 0.000000 40.000000 30.000000
v 0.000000 20.000000 30.000000
v 0.000000 40.000000 0.000000
v -20.000000 20.000000 30.000000
v -20.000000 20.000000 40.000000
v -40.000000 20.000000 40.000000
v -40.000000 20.000000 20.000000
v -20.000000 20.000000 20.000000
v -20.000000 20.000000 10.000000
v -40.000000 40.000000 0.000000
v -40.000000 40.000000 40.000000
v -20.000000 40.000000 30.000000
v -20.000000 40.000000 40.000000
vn -0.000000 -1.000000 0.000000
vn -0.000000 -1.000000 0.000000
vn -0.000000 -1.000000 0.000000
vn -0.000000 -1.000000 -0.000000
vn 1.000000 -0.000000 0.000000
vn 1.000000 -0.000000 0.000000
vn 1.000000 -0.000000 0.000000
vn 1.000000 -0.000000 0.000000
vn 0.000000 -1.000000 0.000000
vn -0.000000 -1.000000 0.000000
vn 0.000000 -1.000000 0.000000
vn -0.000000 -1.000000 0.000000
vn 0.000000 -1.000000 0.000000
vn 0.000000 -1.000000 0.000000
vn 0.000000 0.000000 -1.000000
vn 0.000000 0.000000 -1.000000
vn -1.000000 -0.000000 0.000000
vn -1.000000 0.000000 0.000000
vn -1.000000 -0.000000 0.000000
vn -1.000000 0.000000 -0.000000
vn 0.000000 0.000000 1.000000
vn -0.000000 0.000000 1.000000
vn 1.000000 0.000000 0.000000
vn 1.000000 0.000000 -0.000000
vn 1.000000 0.000000 0.000000
vn 1.000000 0.000000 -0.000000
vn 0.000000 0.000000 1.000000
vn -0.000000 0.000000 1.000000
vn 0.000000 0.000000 1.000000
vn -0.000000 0.000000 1.000000
vn 0.000000 1.000000 0.000000
vn 0.000000 1.000000 0.000000
vn 0.000000 1.000000 0.000000
vn 0.000000 1.000000 0.000000
vn 0.000000 0.000000 1.000000
vn -0.000000 0.000000 1.000000
f 1//1 2//1 3//1
f 1//2 3//2 4//2
f 5//3 6//3 1//3
f 5//4 1//4 4//4
f 7//5 6//5 5//5
f 7//6 8//6 9//6
f 10//7 8//7 7//7
f 10//8 7//8 5//8
f 11//9 12//9 13//9
f 11//10 13//10 14//10
f 15//11 11//11 14//11
f 9//12 11//12 15//12
f 7//13 15//13 16//13
f 7//14 9//14 15//14
f 4//15 17//15 10//15
f 4//16 10//16 5//16
f 14//17 4//17 3//17
f 17//18 4//18 14//18
f 18//19 14//19 13//19
f 18//20 17//20 14//20
f 14//21 3//21 2//21
f 14//22 2//22 15//22
f 16//23 2//23 1//23
f 16//24 15//24 2//24
f 19//25 12//25 11//25
f 19//26 20//26 12//26
f 16//27 1//27 6//27
f 16//28 6//28 7//28
f 19//29 11//29 9//29
f 19//30 9//30 8//30
f 19//31 10//31 17//31
f 19//32 17//32 18//32
f 20//33 19//33 18//33
f 8//34 10//34 19//34
f 18//35 13//35 12//35
f 18//36 12//36 20//36
