<?xml version='1.0' encoding='UTF-8' standalone='no'?>
    <svg xmlns='http://www.w3.org/2000/svg' xmlns:xlink='http://www.w3.org/1999/xlink' version='1.1'
    width='210.00mm' height='297.00mm' viewBox='0 0 210.00 297.00'>
<style type="text/css">
    path {
        fill: none;
        stroke-linecap: butt;
        stroke-linejoin: bevel;
        stroke-dasharray: none;
    }
    path.outer {
        stroke: #000000;
        stroke-dasharray: none;
        stroke-dashoffset: 0;
        stroke-width: 0.3;
        stroke-opacity: 1.0;
    }
    path.convex {
        stroke: #000000;
        stroke-dasharray: 0.50,1.00;
        stroke-dashoffset:0;
        stroke-width:0.2;
        stroke-opacity: 1.0
    }
    path.concave {
        stroke: #000000;
        stroke-dasharray: 1.00,0.50,0.20,0.50;
        stroke-dashoffset: 0;
        stroke-width: 0.2;
        stroke-opacity: 1.0
    }
    path.freestyle {
        stroke: #000000;
        stroke-dasharray: none;
        stroke-dashoffset: 0;
        stroke-width: 0.2;
        stroke-opacity: 1.0
    }
    path.outer_background {
        stroke: #ffffff;
        stroke-opacity: 1.0;
        stroke-width: 0.5
    }
    path.inner_background {
        stroke: #ffffff;
        stroke-opacity: 1.0;
        stroke-width: 0.2
    }
    path.sticker {
        fill: #e5e5e5;
        stroke: none;
        fill-opacity: 1.0;
    }
    path.arrow {
        fill: #000;
    }
    text {
        font-style: normal;
        fill: #000000;
        fill-opacity: 1.0;
        stroke: none;
    }
    text, tspan {
        text-anchor:middle;
    }
    </style>
<g>
<path class='sticker' d=' M 66.758139 237.137733 L 70.757983 241.301218 L 65.410567 259.769121 L 59.804959 261.151334 Z
M 87.617690 165.096914 L 92.610369 161.337173 L 122.255886 169.921083 L 123.638103 175.526684 Z
M 94.570884 141.083306 L 98.570721 145.246794 L 93.223298 163.714698 L 87.617690 165.096914 Z
M 92.348779 283.587908 L 86.155416 286.999991 L 45.703774 275.287149 L 44.321561 269.681545 Z
M 134.067887 139.506301 L 138.067717 143.669775 L 136.196906 150.130859 L 130.591298 151.513090 Z
M 102.778548 247.567503 L 97.785870 251.327245 L 68.140356 242.743334 L 66.758139 237.137733 Z
M 95.825369 271.581106 L 99.825205 275.744596 L 97.954379 282.205693 L 92.348779 283.587908 Z
M 72.134299 173.627129 L 68.722216 167.433774 L 80.435062 126.982143 L 86.040670 125.599911 Z
M 106.255138 235.560698 L 110.254975 239.724187 L 108.384157 246.185286 L 102.778548 247.567503 Z
M 123.638103 175.526684 L 127.637932 179.690173 L 125.767106 186.151279 L 120.161505 187.533488 Z
M 130.591298 151.513090 L 125.598619 155.272832 L 95.953101 146.688899 L 94.570884 141.083306 Z
M 86.040670 125.599911 L 82.040833 121.436408 L 93.753675 80.984792 L 99.947030 77.572694 Z
M 192.202309 208.393035 L 196.202153 212.556524 L 184.952850 251.407260 L 178.295949 256.420253 Z
M 59.804959 261.151334 L 64.797638 257.391592 L 94.443152 265.975500 L 95.825369 271.581106 Z
M 44.321561 269.681545 L 40.909475 263.488185 L 52.622324 223.036548 L 58.227928 221.654331 Z '/>
<path class='convex' d=' M 72.134299 173.627129 L 120.161505 187.533488
M 66.758139 237.137733 L 102.778548 247.567503
M 87.617690 165.096914 L 94.570884 141.083306
M 86.040670 125.599911 L 72.134299 173.627129
M 130.591298 151.513090 L 134.067887 139.506301
M 120.161505 187.533488 L 123.638103 175.526684
M 58.227928 221.654331 L 106.255138 235.560698
M 159.981051 94.955673 L 146.074677 142.982891
M 99.947030 77.572694 L 86.040670 125.599911
M 118.261943 239.037296 L 132.168302 191.010078
M 86.040670 125.599911 L 134.067887 139.506301
M 94.570884 141.083306 L 130.591298 151.513090
M 102.778548 247.567503 L 106.255138 235.560698
M 44.321561 269.681545 L 92.348779 283.587908
M 106.255138 235.560698 L 120.161505 187.533488
M 95.825369 271.581106 L 59.804959 261.151334
M 123.638103 175.526684 L 87.617690 165.096914
M 92.348779 283.587908 L 95.825369 271.581106
M 59.804959 261.151334 L 66.758139 237.137733
M 58.227928 221.654331 L 72.134299 173.627129
M 147.974262 91.479084 L 134.067887 139.506301
M 58.227928 221.654331 L 44.321561 269.681545 '/>
<path class='concave' d=' M 154.282341 249.467069 L 168.188730 201.439856
M 178.295949 256.420253 L 192.202309 208.393035 '/>
<path class='outer' d=' M 97.785870 251.327245 L 68.140356 242.743334 L 66.758139 237.137733 L 70.757983 241.301218 L 65.410567 259.769121 L 59.804959 261.151334 L 64.797638 257.391592 L 94.443152 265.975500 L 95.825369 271.581106 L 99.825205 275.744596 L 97.954379 282.205693 L 92.348779 283.587908 L 86.155416 286.999991 L 45.703774 275.287149 L 44.321561 269.681545 L 40.909475 263.488185 L 52.622324 223.036548 L 58.227928 221.654331 L 10.200719 207.747972 L 24.107086 159.720769 L 72.134299 173.627129 L 68.722216 167.433774 L 80.435062 126.982143 L 86.040670 125.599911 L 82.040833 121.436408 L 93.753675 80.984792 L 99.947030 77.572694 L 147.974262 91.479084 L 159.981051 94.955673 L 196.001450 105.385443 L 182.095090 153.412661 L 146.074677 142.982891 L 134.067887 139.506301 L 138.067717 143.669775 L 136.196906 150.130859 L 130.591298 151.513090 L 125.598619 155.272832 L 95.953101 146.688899 L 94.570884 141.083306 L 98.570721 145.246794 L 93.223298 163.714698 L 87.617690 165.096914 L 92.610369 161.337173 L 122.255886 169.921083 L 123.638103 175.526684 L 127.637932 179.690173 L 125.767106 186.151279 L 120.161505 187.533488 L 132.168302 191.010078 L 168.188730 201.439856 L 192.202309 208.393035 L 196.202153 212.556524 L 184.952850 251.407260 L 178.295949 256.420253 L 154.282341 249.467069 L 118.261943 239.037296 L 106.255138 235.560698 L 110.254975 239.724187 L 108.384157 246.185286 L 102.778548 247.567503 Z '/>
<g><path transform='matrix(4.802721 1.390636 -1.390636 4.802721 166.289145 252.943659)' class='arrow' d='M 0 0 L 1 1 L 0 0.25 L -1 1 Z'/><text transform='translate(165.037567 259.266108)' style='font-size:5.00'><tspan>1</tspan></text></g>
<text transform='matrix(-0.278127 0.960544 -0.960544 -0.278127 64.146040 249.394847)' style='font-size:4.50'><tspan>1</tspan></text>
<g><path transform='matrix(-4.802721 -1.390636 1.390636 -4.802721 180.195520 204.916438)' class='arrow' d='M 0 0 L 1 1 L 0 0.25 L -1 1 Z'/><text transform='translate(181.447098 202.593988)' style='font-size:5.00'><tspan>2</tspan></text></g>
<text transform='matrix(-0.278128 0.960544 -0.960544 -0.278128 91.958771 153.340420)' style='font-size:4.50'><tspan>2</tspan></text>
<g><path transform='matrix(-4.802721 -1.390636 1.390636 -4.802721 123.960653 84.525904)' class='arrow' d='M 0 0 L 1 1 L 0 0.25 L -1 1 Z'/><text transform='translate(125.212224 82.203453)' style='font-size:5.00'><tspan>3</tspan></text></g>
<text transform='matrix(-0.960544 -0.278127 0.278127 -0.960544 68.084849 277.499216)' style='font-size:4.50'><tspan>3</tspan></text>
<g><path transform='matrix(4.802721 1.390636 -1.390636 4.802721 164.084891 148.197761)' class='arrow' d='M 0 0 L 1 1 L 0 0.25 L -1 1 Z'/><text transform='translate(162.833313 154.520219)' style='font-size:5.00'><tspan>4</tspan></text></g>
<text transform='matrix(-0.960544 -0.278127 0.278127 -0.960544 112.330774 147.162696)' style='font-size:4.50'><tspan>4</tspan></text>
<g><path transform='matrix(-1.390637 4.802721 -4.802721 -1.390637 17.153903 183.734370)' class='arrow' d='M 0 0 L 1 1 L 0 0.25 L -1 1 Z'/><text transform='translate(12.831454 184.482796)' style='font-size:5.00'><tspan>5</tspan></text></g>
<text transform='matrix(0.278127 -0.960544 0.960544 0.278127 92.129359 101.336023)' style='font-size:4.50'><tspan>5</tspan></text>
<g><path transform='matrix(1.390636 -4.802721 4.802721 1.390636 189.048270 129.399052)' class='arrow' d='M 0 0 L 1 1 L 0 0.25 L -1 1 Z'/><text transform='translate(193.370724 132.650634)' style='font-size:5.00'><tspan>6.</tspan></text></g>
<text transform='matrix(-0.278127 0.960544 -0.960544 -0.278127 186.113620 232.656965)' style='font-size:4.50'><tspan>6.</tspan></text>
<g><path transform='matrix(-4.802721 -1.390636 1.390636 -4.802721 177.991251 100.170543)' class='arrow' d='M 0 0 L 1 1 L 0 0.25 L -1 1 Z'/><text transform='translate(179.242829 97.848093)' style='font-size:5.00'><tspan>7</tspan></text></g>
<text transform='matrix(0.960544 0.278127 -0.278127 0.960544 78.065479 265.501728)' style='font-size:4.50'><tspan>7</tspan></text>
</g>
</svg>
