<?xml version="1.0" encoding="UTF-8" standalone="no"?>
<svg
   xmlns:dc="http://purl.org/dc/elements/1.1/"
   xmlns:cc="http://creativecommons.org/ns#"
   xmlns:rdf="http://www.w3.org/1999/02/22-rdf-syntax-ns#"
   xmlns:svg="http://www.w3.org/2000/svg"
   xmlns="http://www.w3.org/2000/svg"
   xmlns:sodipodi="http://sodipodi.sourceforge.net/DTD/sodipodi-0.dtd"
   xmlns:inkscape="http://www.inkscape.org/namespaces/inkscape"
   version="1.1"
   width="210.00mm"
   height="297.00mm"
   viewBox="0 0 210.00 297.00"
   id="svg180"
   sodipodi:docname="01111_facil-easy_page1.svg"
   inkscape:version="0.92.1 r15371">
  <metadata
     id="metadata186">
    <rdf:RDF>
      <cc:Work
         rdf:about="">
        <dc:format>image/svg+xml</dc:format>
        <dc:type
           rdf:resource="http://purl.org/dc/dcmitype/StillImage" />
      </cc:Work>
    </rdf:RDF>
  </metadata>
  <defs
     id="defs184" />
  <sodipodi:namedview
     pagecolor="#ffffff"
     bordercolor="#666666"
     borderopacity="1"
     objecttolerance="10"
     gridtolerance="10"
     guidetolerance="10"
     inkscape:pageopacity="0"
     inkscape:pageshadow="2"
     inkscape:window-width="640"
     inkscape:window-height="480"
     id="namedview182"
     showgrid="false"
     inkscape:zoom="0.2102413"
     inkscape:cx="396.85039"
     inkscape:cy="561.25984"
     inkscape:window-x="0"
     inkscape:window-y="29"
     inkscape:window-maximized="0"
     inkscape:current-layer="svg180" />
  <style
     type="text/css"
     id="style2">
    path {
        fill: none;
        stroke-linecap: butt;
        stroke-linejoin: bevel;
        stroke-dasharray: none;
    }
    path.outer {
        stroke: #000000;
        stroke-dasharray: none;
        stroke-dashoffset: 0;
        stroke-width: 0.3;
        stroke-opacity: 1.0;
    }
    path.convex {
        stroke: #000000;
        stroke-dasharray: 0.50,1.00;
        stroke-dashoffset:0;
        stroke-width:0.2;
        stroke-opacity: 1.0
    }
    path.concave {
        stroke: #000000;
        stroke-dasharray: 1.00,0.50,0.20,0.50;
        stroke-dashoffset: 0;
        stroke-width: 0.2;
        stroke-opacity: 1.0
    }
    path.freestyle {
        stroke: #000000;
        stroke-dasharray: none;
        stroke-dashoffset: 0;
        stroke-width: 0.2;
        stroke-opacity: 1.0
    }
    path.outer_background {
        stroke: #ffffff;
        stroke-opacity: 1.0;
        stroke-width: 0.5
    }
    path.inner_background {
        stroke: #ffffff;
        stroke-opacity: 1.0;
        stroke-width: 0.2
    }
    path.sticker {
        fill: #e5e5e5;
        stroke: none;
        fill-opacity: 1.0;
    }
    path.arrow {
        fill: #000;
    }
    text {
        font-style: normal;
        fill: #000000;
        fill-opacity: 1.0;
        stroke: none;
    }
    text, tspan {
        text-anchor:middle;
    }
    </style>
  <g
     id="g178">
    <text
       transform="translate(97.35620953142643 285.99999118596315)"
       style="font-size:5.00"
       id="text6">
      <tspan
         id="tspan4">[1] Island 1</tspan>
    </text>
    <path
       class="sticker"
       d=" M 149.577538 127.763083 L 157.556871 119.931733 L 166.440526 117.062604 L 170.724237 120.933419 Z M 97.039634 109.702399 L 106.407681 122.439733 L 111.154960 137.138730 L 107.284153 141.422441 Z M 47.258900 172.484813 L 48.469270 166.839605 L 53.548539 165.199181 L 57.832258 169.069974 Z M 96.381979 179.972162 L 83.644630 189.340195 L 68.945648 194.087481 L 64.661929 190.216681 Z M 184.712419 128.091922 L 181.491101 134.386620 L 146.702746 145.622095 L 142.419035 141.751280 Z M 169.737736 226.338064 L 175.382936 227.548426 L 177.023375 232.627681 L 173.152575 236.911407 Z M 57.503412 204.204848 L 58.713781 198.559647 L 63.793050 196.919208 L 68.076769 200.790009 Z M 159.164378 229.752904 L 149.796346 217.015555 L 145.049060 202.316558 L 148.919860 198.032847 Z M 171.053076 85.798537 L 158.315727 95.166570 L 143.616745 99.913856 L 139.333034 96.043041 Z M 22.368530 203.876024 L 35.105878 194.507992 L 49.804853 189.760705 L 54.088572 193.631520 Z M 127.773175 204.862526 L 137.141207 217.599859 L 141.888494 232.298857 L 138.017694 236.582583 Z M 125.344845 88.884538 L 126.555199 83.239337 L 131.634483 81.598898 L 135.918194 85.469699 Z M 107.284153 141.422441 L 108.494515 135.777226 L 117.378155 132.908126 L 128.430845 134.592762 Z M 57.832258 169.069974 L 70.569599 159.701934 L 93.830967 152.189305 L 100.125642 155.410623 Z M 173.152575 236.911407 L 178.797776 238.121768 L 183.545062 252.820751 L 183.397094 268.631449 Z M 99.796811 190.545505 L 91.965446 182.566172 L 89.096332 173.682531 L 92.967140 169.398820 Z M 61.247090 179.643324 L 60.036728 185.288539 L 54.957459 186.928963 L 50.673733 183.058163 Z M 148.919860 198.032847 L 147.709513 203.678062 L 138.825858 206.547176 L 127.773175 204.862526 Z M 132.503355 74.896356 L 133.713717 69.251141 L 148.412699 64.503869 L 164.223397 64.651838 Z M 162.579218 240.326246 L 156.934002 239.115885 L 155.293578 234.036615 L 159.164378 229.752904 Z M 127.444336 239.997422 L 118.076304 227.260074 L 110.563660 203.998705 L 113.784993 197.704023 Z M 71.491608 211.363366 L 70.281247 217.008581 L 65.201977 218.649006 L 60.918251 214.778205 Z M 156.078378 184.044672 L 162.373060 187.265998 L 169.885704 210.527366 L 169.737736 226.338064 Z M 128.759677 99.457880 L 123.114476 98.247519 L 121.474037 93.168249 L 125.344845 88.884538 Z "
       id="path8" />
    <path
       class="convex"
       d=" M 139.333034 96.043041 L 128.759677 99.457880 M 100.125642 155.410623 L 57.832258 169.069974 M 142.419035 141.751280 L 100.125642 155.410623 M 156.078378 184.044672 L 113.784993 197.704023 M 50.673733 183.058163 L 47.258900 172.484813 M 138.017694 236.582583 L 127.773175 204.862526 M 142.419035 141.751280 L 128.759677 99.457880 M 170.724237 120.933419 L 149.577538 127.763083 M 127.773175 204.862526 L 148.919860 198.032847 M 113.784993 197.704023 L 127.444336 239.997422 M 25.783369 214.449367 L 57.503412 204.204848 M 128.430845 134.592762 L 107.284153 141.422441 M 142.419035 141.751280 L 184.712419 128.091922 M 60.918251 214.778205 L 57.503412 204.204848 M 173.152575 236.911407 L 162.579218 240.326246 M 173.152575 236.911407 L 169.737736 226.338064 M 183.397094 268.631449 L 173.152575 236.911407 M 135.918194 85.469699 L 125.344845 88.884538 M 139.333034 96.043041 L 171.053076 85.798537 M 54.088572 193.631520 L 22.368530 203.876024 M 60.918251 214.778205 L 71.491608 211.363366 M 159.164378 229.752904 L 169.737736 226.338064 M 169.737736 226.338064 L 156.078378 184.044672 M 61.247090 179.643324 L 57.832258 169.069974 M 172.823736 272.046288 L 162.579218 240.326246 M 68.076769 200.790009 L 57.503412 204.204848 M 148.919860 198.032847 L 159.164378 229.752904 M 57.832258 169.069974 L 47.258900 172.484813 M 107.284153 141.422441 L 97.039634 109.702399 M 68.076769 200.790009 L 71.491608 211.363366 M 125.344845 88.884538 L 128.759677 99.457880 M 50.673733 183.058163 L 61.247090 179.643324 M 64.661929 190.216681 L 96.381979 179.972162 M 164.223397 64.651838 L 132.503355 74.896356 M 61.247090 179.643324 L 92.967140 169.398820 M 92.967140 169.398820 L 99.796811 190.545505 M 139.333034 96.043041 L 135.918194 85.469699 M 113.784993 197.704023 L 100.125642 155.410623 M 159.164378 229.752904 L 162.579218 240.326246 M 167.638237 75.225195 L 135.918194 85.469699 "
       id="path10" />
    <path
       class="outer"
       d=" M 127.444336 239.997422 L 118.076304 227.260074 L 110.563660 203.998705 L 113.784993 197.704023 L 71.491608 211.363366 L 70.281247 217.008581 L 65.201977 218.649006 L 60.918251 214.778205 L 29.198209 225.022724 L 25.783369 214.449367 L 22.368530 203.876024 L 35.105878 194.507992 L 49.804853 189.760705 L 54.088572 193.631520 L 57.503412 204.204848 L 58.713781 198.559647 L 63.793050 196.919208 L 68.076769 200.790009 L 99.796811 190.545505 L 91.965446 182.566172 L 89.096332 173.682531 L 92.967140 169.398820 L 96.381979 179.972162 L 83.644630 189.340195 L 68.945648 194.087481 L 64.661929 190.216681 L 61.247090 179.643324 L 60.036728 185.288539 L 54.957459 186.928963 L 50.673733 183.058163 L 18.953690 193.302682 L 15.538851 182.729324 L 47.258900 172.484813 L 48.469270 166.839605 L 53.548539 165.199181 L 57.832258 169.069974 L 70.569599 159.701934 L 93.830967 152.189305 L 100.125642 155.410623 L 86.466292 113.117239 L 97.039634 109.702399 L 106.407681 122.439733 L 111.154960 137.138730 L 107.284153 141.422441 L 108.494515 135.777226 L 117.378155 132.908126 L 128.430845 134.592762 L 118.186334 102.872720 L 128.759677 99.457880 L 123.114476 98.247519 L 121.474037 93.168249 L 125.344845 88.884538 L 126.555199 83.239337 L 131.634483 81.598898 L 135.918194 85.469699 L 132.503355 74.896356 L 133.713717 69.251141 L 148.412699 64.503869 L 164.223397 64.651838 L 167.638237 75.225195 L 171.053076 85.798537 L 158.315727 95.166570 L 143.616745 99.913856 L 139.333034 96.043041 L 149.577538 127.763083 L 157.556871 119.931733 L 166.440526 117.062604 L 170.724237 120.933419 L 160.479734 89.213377 L 171.053076 85.798537 L 184.712419 128.091922 L 181.491101 134.386620 L 146.702746 145.622095 L 142.419035 141.751280 L 156.078378 184.044672 L 162.373060 187.265998 L 169.885704 210.527366 L 169.737736 226.338064 L 175.382936 227.548426 L 177.023375 232.627681 L 173.152575 236.911407 L 178.797776 238.121768 L 183.545062 252.820751 L 183.397094 268.631449 L 172.823736 272.046288 L 162.250379 275.461128 L 152.005875 243.741086 L 162.579218 240.326246 L 156.934002 239.115885 L 155.293578 234.036615 L 159.164378 229.752904 L 149.796346 217.015555 L 145.049060 202.316558 L 148.919860 198.032847 L 147.709513 203.678062 L 138.825858 206.547176 L 127.773175 204.862526 L 137.141207 217.599859 L 141.888494 232.298857 L 138.017694 236.582583 Z "
       id="path12" />
    <text
       transform="matrix(0.951601 -0.307335 0.307335 0.951601 159.874285 123.491814)"
       style="font-size:4.50"
       id="text16">
      <tspan
         id="tspan14">2:1</tspan>
    </text>
    <g
       id="g24">
      <path
         transform="matrix(1.536677 4.758006 -4.758006 1.536677 27.490789 219.736045)"
         class="arrow"
         d="M 0 0 L 1 1 L 0 0.25 L -1 1 Z"
         id="path18" />
      <text
         transform="translate(23.208583 223.119048)"
         style="font-size:5.00"
         id="text22">
        <tspan
           id="tspan20">1</tspan>
      </text>
    </g>
    <g
       id="g32">
      <path
         transform="matrix(4.758006 -1.536677 1.536677 4.758006 178.110415 270.338869)"
         class="arrow"
         d="M 0 0 L 1 1 L 0 0.25 L -1 1 Z"
         id="path26" />
      <text
         transform="translate(179.493422 276.621075)"
         style="font-size:5.00"
         id="text30">
        <tspan
           id="tspan28">2</tspan>
      </text>
    </g>
    <g
       id="g40">
      <path
         transform="matrix(-1.536677 -4.758006 4.758006 -1.536677 169.345656 80.511859)"
         class="arrow"
         d="M 0 0 L 1 1 L 0 0.25 L -1 1 Z"
         id="path34" />
      <text
         transform="translate(173.627863 81.128856)"
         style="font-size:5.00"
         id="text38">
        <tspan
           id="tspan36">3</tspan>
      </text>
    </g>
    <g
       id="g48">
      <path
         transform="matrix(1.536677 4.758006 -4.758006 1.536677 17.246271 188.016003)"
         class="arrow"
         d="M 0 0 L 1 1 L 0 0.25 L -1 1 Z"
         id="path42" />
      <text
         transform="translate(12.964065 191.399006)"
         style="font-size:5.00"
         id="text46">
        <tspan
           id="tspan44">4</tspan>
      </text>
    </g>
    <g
       id="g56">
      <path
         transform="matrix(-4.758006 1.536677 -1.536677 -4.758006 31.398872 177.607065)"
         class="arrow"
         d="M 0 0 L 1 1 L 0 0.25 L -1 1 Z"
         id="path50" />
      <text
         transform="translate(30.015862 175.324855)"
         style="font-size:5.00"
         id="text54">
        <tspan
           id="tspan52">5</tspan>
      </text>
    </g>
    <text
       transform="matrix(0.307335 0.951601 -0.951601 0.307335 103.018338 125.285825)"
       style="font-size:4.50"
       id="text60">
      <tspan
         id="tspan58">5</tspan>
    </text>
    <g
       id="g68">
      <path
         transform="matrix(4.758006 -1.536677 1.536677 4.758006 34.813711 188.180422)"
         class="arrow"
         d="M 0 0 L 1 1 L 0 0.25 L -1 1 Z"
         id="path62" />
      <text
         transform="translate(36.196722 194.462625)"
         style="font-size:5.00"
         id="text66">
        <tspan
           id="tspan64">6.</tspan>
      </text>
    </g>
    <text
       transform="matrix(-0.951601 0.307335 -0.307335 -0.951601 80.798546 185.950851)"
       style="font-size:4.50"
       id="text72">
      <tspan
         id="tspan70">6.</tspan>
    </text>
    <g
       id="g80">
      <path
         transform="matrix(-1.536677 -4.758006 4.758006 -1.536677 94.674559 174.685484)"
         class="arrow"
         d="M 0 0 L 1 1 L 0 0.25 L -1 1 Z"
         id="path74" />
      <text
         transform="translate(98.956766 175.302474)"
         style="font-size:5.00"
         id="text78">
        <tspan
           id="tspan76">7</tspan>
      </text>
    </g>
    <g
       id="g88">
      <path
         transform="matrix(1.536676 4.758007 -4.758007 1.536676 157.128135 259.601107)"
         class="arrow"
         d="M 0 0 L 1 1 L 0 0.25 L -1 1 Z"
         id="path82" />
      <text
         transform="translate(152.845928 262.984116)"
         style="font-size:5.00"
         id="text86">
        <tspan
           id="tspan84">8</tspan>
      </text>
    </g>
    <text
       transform="matrix(-0.307335 -0.951601 0.951601 -0.307335 153.185690 214.169478)"
       style="font-size:4.50"
       id="text92">
      <tspan
         id="tspan90">8</tspan>
    </text>
    <g
       id="g100">
      <path
         transform="matrix(-4.758007 1.536676 -1.536676 -4.758007 83.936783 195.667764)"
         class="arrow"
         d="M 0 0 L 1 1 L 0 0.25 L -1 1 Z"
         id="path94" />
      <text
         transform="translate(82.553776 193.385554)"
         style="font-size:5.00"
         id="text98">
        <tspan
           id="tspan96">9.</tspan>
      </text>
    </g>
    <text
       transform="matrix(0.951601 -0.307335 0.307335 0.951601 37.951956 197.897321)"
       style="font-size:4.50"
       id="text104">
      <tspan
         id="tspan102">9.</tspan>
    </text>
    <g
       id="g112">
      <path
         transform="matrix(4.758006 -1.536677 1.536677 4.758006 45.058230 219.900465)"
         class="arrow"
         d="M 0 0 L 1 1 L 0 0.25 L -1 1 Z"
         id="path106" />
      <text
         transform="translate(46.441240 226.182671)"
         style="font-size:5.00"
         id="text110">
        <tspan
           id="tspan108">10</tspan>
      </text>
    </g>
    <text
       transform="matrix(0.307335 0.951601 -0.951601 0.307335 133.751879 220.445951)"
       style="font-size:4.50"
       id="text116">
      <tspan
         id="tspan114">10</tspan>
    </text>
    <text
       transform="matrix(0.951601 -0.307335 0.307335 0.951601 117.580900 137.151172)"
       style="font-size:4.50"
       id="text120">
      <tspan
         id="tspan118">2:2</tspan>
    </text>
    <g
       id="g128">
      <path
         transform="matrix(1.536677 4.758007 -4.758007 1.536677 165.601978 105.073398)"
         class="arrow"
         d="M 0 0 L 1 1 L 0 0.25 L -1 1 Z"
         id="path122" />
      <text
         transform="translate(161.319772 108.456409)"
         style="font-size:5.00"
         id="text126">
        <tspan
           id="tspan124">11</tspan>
      </text>
    </g>
    <text
       transform="matrix(0.307335 0.951601 -0.951601 0.307335 179.131264 252.494818)"
       style="font-size:4.50"
       id="text132">
      <tspan
         id="tspan130">11</tspan>
    </text>
    <text
       transform="matrix(-0.307335 -0.951601 0.951601 -0.307335 95.525527 180.248773)"
       style="font-size:4.50"
       id="text136">
      <tspan
         id="tspan134">2:3</tspan>
    </text>
    <g
       id="g144">
      <path
         transform="matrix(4.758006 -1.536677 1.536677 4.758006 167.537058 273.753708)"
         class="arrow"
         d="M 0 0 L 1 1 L 0 0.25 L -1 1 Z"
         id="path138" />
      <text
         transform="translate(168.920064 280.035915)"
         style="font-size:5.00"
         id="text142">
        <tspan
           id="tspan140">12</tspan>
      </text>
    </g>
    <text
       transform="matrix(-0.951601 0.307335 -0.307335 -0.951601 138.623128 202.304130)"
       style="font-size:4.50"
       id="text148">
      <tspan
         id="tspan146">2:4</tspan>
    </text>
    <g
       id="g156">
      <path
         transform="matrix(1.536677 4.758007 -4.758007 1.536677 123.308593 118.732741)"
         class="arrow"
         d="M 0 0 L 1 1 L 0 0.25 L -1 1 Z"
         id="path150" />
      <text
         transform="translate(119.026387 122.115752)"
         style="font-size:5.00"
         id="text154">
        <tspan
           id="tspan152">13</tspan>
      </text>
    </g>
    <text
       transform="matrix(0.951601 -0.307335 0.307335 0.951601 148.086781 68.917653)"
       style="font-size:4.50"
       id="text160">
      <tspan
         id="tspan158">13</tspan>
    </text>
    <g
       id="g168">
      <path
         transform="matrix(-1.536677 -4.758006 4.758006 -1.536677 165.930817 69.938516)"
         class="arrow"
         d="M 0 0 L 1 1 L 0 0.25 L -1 1 Z"
         id="path162" />
      <text
         transform="translate(170.213023 70.555514)"
         style="font-size:5.00"
         id="text166">
        <tspan
           id="tspan164">14</tspan>
      </text>
    </g>
    <g
       id="g176">
      <path
         transform="matrix(1.536677 4.758006 -4.758006 1.536677 24.075950 209.162703)"
         class="arrow"
         d="M 0 0 L 1 1 L 0 0.25 L -1 1 Z"
         id="path170" />
      <text
         transform="translate(19.793743 212.545706)"
         style="font-size:5.00"
         id="text174">
        <tspan
           id="tspan172">15</tspan>
      </text>
    </g>
  </g>
  <style
     id="style312"
     type="text/css">
    path {
        fill: none;
        stroke-linecap: butt;
        stroke-linejoin: bevel;
        stroke-dasharray: none;
    }
    path.outer {
        stroke: #000000;
        stroke-dasharray: none;
        stroke-dashoffset: 0;
        stroke-width: 0.3;
        stroke-opacity: 1.0;
    }
    path.convex {
        stroke: #000000;
        stroke-dasharray: 0.50,1.00;
        stroke-dashoffset:0;
        stroke-width:0.2;
        stroke-opacity: 1.0
    }
    path.concave {
        stroke: #000000;
        stroke-dasharray: 1.00,0.50,0.20,0.50;
        stroke-dashoffset: 0;
        stroke-width: 0.2;
        stroke-opacity: 1.0
    }
    path.freestyle {
        stroke: #000000;
        stroke-dasharray: none;
        stroke-dashoffset: 0;
        stroke-width: 0.2;
        stroke-opacity: 1.0
    }
    path.outer_background {
        stroke: #ffffff;
        stroke-opacity: 1.0;
        stroke-width: 0.5
    }
    path.inner_background {
        stroke: #ffffff;
        stroke-opacity: 1.0;
        stroke-width: 0.2
    }
    path.sticker {
        fill: #e5e5e5;
        stroke: none;
        fill-opacity: 1.0;
    }
    path.arrow {
        fill: #000;
    }
    text {
        font-style: normal;
        fill: #000000;
        fill-opacity: 1.0;
        stroke: none;
    }
    text, tspan {
        text-anchor:middle;
    }
    </style>
  <g
     id="g388"
     transform="translate(15.736515,-199.23655)">
    <text
       id="text316"
       style="font-style:normal;font-size:5px;text-anchor:middle;fill:#000000;fill-opacity:1;stroke:none"
       transform="translate(35.064518,285.99999)">
      <tspan
         id="tspan314"
         style="text-anchor:middle">[2] Island 2</tspan>
    </text>
    <path
       id="path318"
       d="M 19.351033,255.93547 13.774259,257.42976 10,253.65549 l 1.494294,-5.57677 z m 15.713487,-15.71348 -1.494292,-5.57677 3.774265,-3.77427 5.576776,1.49429 z m 23.570225,7.85675 1.494292,5.57677 -3.774259,3.77426 -5.576775,-1.4943 z m -15.713491,31.42696 -5.576774,1.49429 -3.774257,-3.77426 1.494292,-5.57677 z m -7.856739,-7.85674 1.49429,5.57677 -3.774259,3.77426 -5.576775,-1.49429 z m -7.856731,-39.28372 5.576777,-1.49428 3.774255,3.77426 -1.494296,5.57677 z m 23.570219,23.57023 5.576775,-1.49429 3.774259,3.77426 -1.494292,5.57678 z m -39.283711,7.85673 -1.49429,-5.57677 3.774259,-3.77426 5.576772,1.4943 z"
       class="sticker"
       inkscape:connector-curvature="0"
       style="fill:#e5e5e5;fill-opacity:1;stroke:none;stroke-linecap:butt;stroke-linejoin:bevel;stroke-dasharray:none" />
    <path
       id="path320"
       d="m 58.634745,263.79222 -7.856742,-7.85675 M 35.06452,240.22199 27.207784,232.36524 m -15.71349,15.71348 7.856739,7.85675 m 0,0 -7.856741,7.85673 m 39.283711,-7.85673 7.856742,-7.85673 m -23.57023,23.57022 7.856739,7.85674 m 1.5e-5,-47.14046 -7.856749,7.85675 m -7.856749,39.28371 7.856744,-7.85674"
       class="concave"
       inkscape:connector-curvature="0"
       style="fill:none;stroke:#000000;stroke-width:0.2;stroke-linecap:butt;stroke-linejoin:bevel;stroke-dasharray:1, 0.5, 0.2, 0.5;stroke-dashoffset:0;stroke-opacity:1" />
    <path
       id="path322"
       d="m 56.354778,254.44118 3.774259,3.77426 -1.494292,5.57678 -15.713491,15.71348 -5.576774,1.49429 -3.774257,-3.77426 1.494292,-5.57677 1.49429,5.57677 -3.774259,3.77426 -5.576775,-1.49429 -15.713479,-15.7135 -1.49429,-5.57677 3.774259,-3.77426 5.576772,1.4943 -5.576774,1.49429 L 10,253.65549 l 1.494294,-5.57677 15.71349,-15.71348 5.576777,-1.49428 3.774255,3.77426 -1.494296,5.57677 -1.494292,-5.57677 3.774265,-3.77427 5.576776,1.49429 15.713476,15.7135 1.494292,5.57677 -3.774259,3.77426 -5.576775,-1.4943 z"
       class="outer"
       inkscape:connector-curvature="0"
       style="fill:none;stroke:#000000;stroke-width:0.30000001;stroke-linecap:butt;stroke-linejoin:bevel;stroke-dasharray:none;stroke-dashoffset:0;stroke-opacity:1" />
    <g
       id="g330">
      <path
         id="path324"
         d="M 0,0 1,1 0,0.25 -1,1 Z"
         class="arrow"
         transform="matrix(-3.535533,-3.535535,3.535535,-3.535533,50.778011,240.22199)"
         inkscape:connector-curvature="0"
         style="fill:#000000;stroke-linecap:butt;stroke-linejoin:bevel;stroke-dasharray:none" />
      <text
         id="text328"
         style="font-style:normal;font-size:5px;text-anchor:middle;fill:#000000;fill-opacity:1;stroke:none"
         transform="translate(53.959994,239.04001)">
        <tspan
           id="tspan326"
           style="text-anchor:middle">1</tspan>
      </text>
    </g>
    <text
       id="text334"
       style="font-style:normal;font-size:4.5px;text-anchor:middle;fill:#000000;fill-opacity:1;stroke:none"
       transform="rotate(-134.99996,59.717367,123.25944)">
      <tspan
         id="tspan332"
         style="text-anchor:middle">1:1</tspan>
    </text>
    <text
       id="text338"
       style="font-style:normal;font-size:4.5px;text-anchor:middle;fill:#000000;fill-opacity:1;stroke:none"
       transform="rotate(-45,303.64166,71.528097)">
      <tspan
         id="tspan336"
         style="text-anchor:middle">1:2</tspan>
    </text>
    <text
       id="text342"
       style="font-style:normal;font-size:4.5px;text-anchor:middle;fill:#000000;fill-opacity:1;stroke:none"
       transform="rotate(135,-24.652802,137.78359)">
      <tspan
         id="tspan340"
         style="text-anchor:middle">1:3</tspan>
    </text>
    <text
       id="text346"
       style="font-style:normal;font-size:4.5px;text-anchor:middle;fill:#000000;fill-opacity:1;stroke:none"
       transform="rotate(-135,76.383976,130.16295)">
      <tspan
         id="tspan344"
         style="text-anchor:middle">1:4</tspan>
    </text>
    <text
       id="text350"
       style="font-style:normal;font-size:4.5px;text-anchor:middle;fill:#000000;fill-opacity:1;stroke:none"
       transform="rotate(135,-41.319469,144.68715)">
      <tspan
         id="tspan348"
         style="text-anchor:middle">1:7</tspan>
    </text>
    <g
       id="g358">
      <path
         id="path352"
         d="M 0,0 1,1 0,0.25 -1,1 Z"
         class="arrow"
         transform="matrix(3.535535,-3.535533,3.535533,3.535535,50.778,271.64896)"
         inkscape:connector-curvature="0"
         style="fill:#000000;stroke-linecap:butt;stroke-linejoin:bevel;stroke-dasharray:none" />
      <text
         id="text356"
         style="font-style:normal;font-size:5px;text-anchor:middle;fill:#000000;fill-opacity:1;stroke:none"
         transform="translate(53.959979,276.83094)">
        <tspan
           id="tspan354"
           style="text-anchor:middle">2</tspan>
      </text>
    </g>
    <g
       id="g366">
      <path
         id="path360"
         d="M 0,0 1,1 0,0.25 -1,1 Z"
         class="arrow"
         transform="matrix(3.535533,3.535535,-3.535535,3.535533,19.35103,271.64895)"
         inkscape:connector-curvature="0"
         style="fill:#000000;stroke-linecap:butt;stroke-linejoin:bevel;stroke-dasharray:none" />
      <text
         id="text364"
         style="font-style:normal;font-size:5px;text-anchor:middle;fill:#000000;fill-opacity:1;stroke:none"
         transform="translate(16.169048,276.83093)">
        <tspan
           id="tspan362"
           style="text-anchor:middle">3</tspan>
      </text>
    </g>
    <text
       id="text370"
       style="font-style:normal;font-size:4.5px;text-anchor:middle;fill:#000000;fill-opacity:1;stroke:none"
       transform="rotate(45.000041,-268.57684,156.18159)">
      <tspan
         id="tspan368"
         style="text-anchor:middle">1:12</tspan>
    </text>
    <g
       id="g378">
      <path
         id="path372"
         d="M 0,0 1,1 0,0.25 -1,1 Z"
         class="arrow"
         transform="matrix(-3.535535,3.535533,-3.535533,-3.535535,19.351037,240.22198)"
         inkscape:connector-curvature="0"
         style="fill:#000000;stroke-linecap:butt;stroke-linejoin:bevel;stroke-dasharray:none" />
      <text
         id="text376"
         style="font-style:normal;font-size:5px;text-anchor:middle;fill:#000000;fill-opacity:1;stroke:none"
         transform="translate(16.169058,239.04)">
        <tspan
           id="tspan374"
           style="text-anchor:middle">4</tspan>
      </text>
    </g>
    <text
       id="text382"
       style="font-style:normal;font-size:4.5px;text-anchor:middle;fill:#000000;fill-opacity:1;stroke:none"
       transform="rotate(45,-285.24386,196.41822)">
      <tspan
         id="tspan380"
         style="text-anchor:middle">1:14</tspan>
    </text>
    <text
       id="text386"
       style="font-style:normal;font-size:4.5px;text-anchor:middle;fill:#000000;fill-opacity:1;stroke:none"
       transform="rotate(-44.999959,320.30866,111.76528)">
      <tspan
         id="tspan384"
         style="text-anchor:middle">1:15</tspan>
    </text>
  </g>
</svg>
