<?xml version='1.0' encoding='UTF-8' standalone='no'?>
    <svg xmlns='http://www.w3.org/2000/svg' xmlns:xlink='http://www.w3.org/1999/xlink' version='1.1'
    width='210.00mm' height='297.00mm' viewBox='0 0 210.00 297.00'>
<style type="text/css">
    path {
        fill: none;
        stroke-linecap: butt;
        stroke-linejoin: bevel;
        stroke-dasharray: none;
    }
    path.outer {
        stroke: #000000;
        stroke-dasharray: none;
        stroke-dashoffset: 0;
        stroke-width: 0.3;
        stroke-opacity: 1.0;
    }
    path.convex {
        stroke: #000000;
        stroke-dasharray: 0.50,1.00;
        stroke-dashoffset:0;
        stroke-width:0.2;
        stroke-opacity: 1.0
    }
    path.concave {
        stroke: #000000;
        stroke-dasharray: 1.00,0.50,0.20,0.50;
        stroke-dashoffset: 0;
        stroke-width: 0.2;
        stroke-opacity: 1.0
    }
    path.freestyle {
        stroke: #000000;
        stroke-dasharray: none;
        stroke-dashoffset: 0;
        stroke-width: 0.2;
        stroke-opacity: 1.0
    }
    path.outer_background {
        stroke: #ffffff;
        stroke-opacity: 1.0;
        stroke-width: 0.5
    }
    path.inner_background {
        stroke: #ffffff;
        stroke-opacity: 1.0;
        stroke-width: 0.2
    }
    path.sticker {
        fill: #e5e5e5;
        stroke: none;
        fill-opacity: 1.0;
    }
    path.arrow {
        fill: #000;
    }
    text {
        font-style: normal;
        fill: #000000;
        fill-opacity: 1.0;
        stroke: none;
    }
    text, tspan {
        text-anchor:middle;
    }
    </style>
<g>
<path class='sticker' d=' M 151.129234 114.832473 L 156.129229 134.832469 L 156.129214 184.673001 L 151.129219 187.559751 Z
M 78.402000 23.923350 L 81.288743 18.923354 L 93.697059 18.923354 L 96.583801 23.923350 Z
M 78.401986 42.105180 L 73.401990 37.105155 L 73.401990 26.810092 L 78.402000 23.923350 Z
M 39.832498 171.583717 L 41.326794 177.160491 L 32.552789 185.934496 L 26.976014 184.440208 Z
M 145.803886 200.416234 L 147.298175 205.993009 L 140.018466 213.272725 L 132.947403 213.272725 Z
M 11.000006 200.416197 L 16.000007 195.416194 L 62.658715 195.416209 L 65.545465 200.416212 Z
M 132.947403 187.559751 L 140.018466 187.559751 L 147.298175 194.839460 L 145.803886 200.416234 Z
M 65.545483 120.157790 L 71.122262 118.663502 L 78.401971 125.943211 L 78.401971 133.014274 Z
M 151.129263 23.923409 L 156.129259 26.810152 L 156.129244 39.218438 L 151.129249 42.105195 Z
M 78.401971 114.832458 L 73.401968 109.832448 L 73.401975 70.287001 L 78.401986 60.287011 Z
M 10.999999 236.779832 L 6.000000 233.893079 L 6.000005 210.416202 L 11.000006 200.416197 Z
M 14.119526 171.583709 L 12.625240 166.006935 L 21.399247 157.232937 L 26.976020 158.727241 Z
M 151.129204 285.999992 L 146.129209 290.999991 L 81.288683 290.999978 L 78.401941 285.999978 Z
M 96.583801 42.105180 L 93.697059 47.105175 L 81.288728 47.105175 L 78.401986 42.105180 Z '/>
<path class='convex' d=' M 78.401941 285.999978 L 151.129204 285.999992
M 132.947403 213.272725 L 120.090920 200.416227
M 78.401986 60.287011 L 78.401971 114.832458
M 132.947403 213.272725 L 78.401941 267.818146
M 132.947403 213.272725 L 145.803886 200.416234
M 151.129249 42.105195 L 96.583801 42.105180
M 145.803886 200.416234 L 132.947403 187.559751
M 65.545476 145.870772 L 120.090920 200.416227
M 151.129249 42.105195 L 151.129263 23.923409
M 132.947403 187.559751 L 120.090920 200.416227
M 78.401971 133.014274 L 65.545476 145.870772
M 151.129219 187.559751 L 151.129234 114.832473
M 78.401971 133.014274 L 132.947403 187.559751
M 26.976014 184.440208 L 39.832498 171.583717
M 26.976020 158.727241 L 14.119526 171.583709
M 96.583801 42.105180 L 96.583801 23.923350
M 151.129234 114.832473 L 78.401971 114.832458
M 96.583801 23.923350 L 78.402000 23.923350
M 11.000006 200.416197 L 10.999999 236.779832
M 65.545454 254.961659 L 120.090920 200.416227
M 78.401971 133.014274 L 65.545483 120.157790
M 26.976020 158.727241 L 39.832498 171.583717
M 78.401986 42.105180 L 96.583801 42.105180 '/>
<path class='concave' d=' M 65.545454 254.961659 L 65.545465 200.416212
M 65.545465 200.416212 L 11.000006 200.416197
M 78.402000 23.923350 L 78.401986 42.105180
M 65.545465 200.416212 L 120.090920 200.416227 '/>
<path class='outer' d=' M 39.832498 171.583717 L 41.326794 177.160491 L 32.552789 185.934496 L 26.976014 184.440208 L 14.119526 171.583709 L 12.625240 166.006935 L 21.399247 157.232937 L 26.976020 158.727241 L 65.545483 120.157790 L 71.122262 118.663502 L 78.401971 125.943211 L 78.401971 133.014274 L 78.401971 114.832458 L 73.401968 109.832448 L 73.401975 70.287001 L 78.401986 60.287011 L 96.583801 60.287011 L 96.583801 42.105180 L 93.697059 47.105175 L 81.288728 47.105175 L 78.401986 42.105180 L 73.401990 37.105155 L 73.401990 26.810092 L 78.402000 23.923350 L 81.288743 18.923354 L 93.697059 18.923354 L 96.583801 23.923350 L 151.129263 23.923409 L 156.129259 26.810152 L 156.129244 39.218438 L 151.129249 42.105195 L 151.129234 114.832473 L 156.129229 134.832469 L 156.129214 184.673001 L 151.129219 187.559751 L 132.947403 187.559751 L 140.018466 187.559751 L 147.298175 194.839460 L 145.803886 200.416234 L 147.298175 205.993009 L 140.018466 213.272725 L 132.947403 213.272725 L 151.129219 213.272733 L 151.129204 285.999992 L 146.129209 290.999991 L 81.288683 290.999978 L 78.401941 285.999978 L 78.401941 267.818146 L 65.545454 254.961659 L 29.181811 254.961659 L 29.181817 236.779832 L 10.999999 236.779832 L 6.000000 233.893079 L 6.000005 210.416202 L 11.000006 200.416197 L 16.000007 195.416194 L 62.658715 195.416209 L 65.545465 200.416212 L 65.545476 145.870772 Z '/>
<g><path transform='matrix(0.000001 -5.000000 5.000000 0.000001 151.129204 249.636360)' class='arrow' d='M 0 0 L 1 1 L 0 0.25 L -1 1 Z'/><text transform='translate(155.629206 251.636361)' style='font-size:5.00'><tspan>1</tspan></text></g>
<text transform='matrix(-0.000000 1.000000 -1.000000 -0.000000 152.029234 151.196104)' style='font-size:4.50'><tspan>1</tspan></text>
<g><path transform='matrix(-0.000002 5.000000 -5.000000 -0.000002 29.181815 245.870748)' class='arrow' d='M 0 0 L 1 1 L 0 0.25 L -1 1 Z'/><text transform='translate(24.681815 247.870748)' style='font-size:5.00'><tspan>2</tspan></text></g>
<text transform='matrix(1.000000 0.000000 0.000000 1.000000 87.492901 23.023349)' style='font-size:4.50'><tspan>2</tspan></text>
<g><path transform='matrix(3.535533 3.535535 -3.535535 3.535533 20.547771 178.011958)' class='arrow' d='M 0 0 L 1 1 L 0 0.25 L -1 1 Z'/><text transform='translate(17.365789 183.193934)' style='font-size:5.00'><tspan>3</tspan></text></g>
<text transform='matrix(0.000001 -1.000000 1.000000 0.000001 77.501985 33.014280)' style='font-size:4.50'><tspan>3</tspan></text>
<g><path transform='matrix(5.000000 0.000000 0.000000 5.000000 20.090908 236.779832)' class='arrow' d='M 0 0 L 1 1 L 0 0.25 L -1 1 Z'/><text transform='translate(20.090908 243.279831)' style='font-size:5.00'><tspan>4</tspan></text></g>
<text transform='matrix(-0.707107 0.707107 -0.707107 -0.707107 34.040653 178.648365)' style='font-size:4.50'><tspan>4</tspan></text>
<g><path transform='matrix(0.000000 5.000000 -5.000000 0.000000 78.401941 276.909064)' class='arrow' d='M 0 0 L 1 1 L 0 0.25 L -1 1 Z'/><text transform='translate(73.901939 278.909064)' style='font-size:5.00'><tspan>5</tspan></text></g>
<text transform='matrix(-0.000001 1.000000 -1.000000 -0.000001 152.029264 33.014310)' style='font-size:4.50'><tspan>5</tspan></text>
<g><path transform='matrix(-5.000000 0.000000 0.000000 -5.000000 87.492886 60.287011)' class='arrow' d='M 0 0 L 1 1 L 0 0.25 L -1 1 Z'/><text transform='translate(87.492886 57.787013)' style='font-size:5.00'><tspan>6.</tspan></text></g>
<text transform='matrix(0.707107 -0.707106 0.707106 0.707107 19.911379 164.519069)' style='font-size:4.50'><tspan>6.</tspan></text>
</g>
</svg>
