<?xml version='1.0' encoding='UTF-8' standalone='no'?>
    <svg xmlns='http://www.w3.org/2000/svg' xmlns:xlink='http://www.w3.org/1999/xlink' version='1.1'
    width='210.00mm' height='297.00mm' viewBox='0 0 210.00 297.00'>
<style type="text/css">
    path {
        fill: none;
        stroke-linecap: butt;
        stroke-linejoin: bevel;
        stroke-dasharray: none;
    }
    path.outer {
        stroke: #000000;
        stroke-dasharray: none;
        stroke-dashoffset: 0;
        stroke-width: 0.3;
        stroke-opacity: 1.0;
    }
    path.convex {
        stroke: #000000;
        stroke-dasharray: 0.50,1.00;
        stroke-dashoffset:0;
        stroke-width:0.2;
        stroke-opacity: 1.0
    }
    path.concave {
        stroke: #000000;
        stroke-dasharray: 1.00,0.50,0.20,0.50;
        stroke-dashoffset: 0;
        stroke-width: 0.2;
        stroke-opacity: 1.0
    }
    path.freestyle {
        stroke: #000000;
        stroke-dasharray: none;
        stroke-dashoffset: 0;
        stroke-width: 0.2;
        stroke-opacity: 1.0
    }
    path.outer_background {
        stroke: #ffffff;
        stroke-opacity: 1.0;
        stroke-width: 0.5
    }
    path.inner_background {
        stroke: #ffffff;
        stroke-opacity: 1.0;
        stroke-width: 0.2
    }
    path.sticker {
        fill: #e5e5e5;
        stroke: none;
        fill-opacity: 1.0;
    }
    path.arrow {
        fill: #000;
    }
    text {
        font-style: normal;
        fill: #000000;
        fill-opacity: 1.0;
        stroke: none;
    }
    text, tspan {
        text-anchor:middle;
    }
    </style>
<g>
<path class='sticker' d=' M 54.382890 287.827336 L 47.670762 285.603080 L 28.130920 246.694767 L 31.303572 241.871119 Z
M 142.049241 71.160969 L 147.812980 71.496767 L 167.352813 110.405055 L 165.128562 117.117194 Z
M 8.224255 195.914914 L 8.560031 190.151175 L 35.896556 176.422720 L 40.720205 179.595371 Z
M 86.473989 41.524333 L 86.809757 35.760594 L 114.146295 22.032094 L 118.969935 25.204760 Z
M 121.194187 167.954494 L 125.032323 172.267501 L 115.409973 201.304843 L 109.755742 202.472267 Z
M 31.303572 241.871119 L 25.539842 241.535340 L 6.000000 202.627045 L 8.224255 195.914914 Z
M 118.969935 25.204760 L 125.682074 27.429056 L 145.221907 66.337329 L 142.049241 71.160969 Z
M 52.158653 145.077613 L 48.320509 140.764606 L 57.942863 111.727280 L 63.597101 110.559833 Z
M 86.878839 271.507793 L 86.543056 277.271525 L 59.206541 290.999991 L 54.382890 287.827336 Z
M 165.128562 117.117194 L 164.792794 122.880918 L 137.456271 136.609388 L 132.632631 133.436722 Z '/>
<path class='convex' d=' M 54.382890 287.827336 L 86.878839 271.507793
M 132.632631 133.436722 L 165.128562 117.117194
M 40.720205 179.595371 L 8.224255 195.914914
M 86.878839 271.507793 L 40.720205 179.595371
M 109.755742 202.472267 L 40.720205 179.595371
M 142.049241 71.160969 L 118.969935 25.204760
M 118.969935 25.204760 L 86.473989 41.524333
M 31.303572 241.871119 L 54.382890 287.827336
M 51.956224 30.085874 L 29.079334 99.121389
M 109.755742 202.472267 L 121.194187 167.954494
M 132.632631 133.436722 L 86.473989 41.524333
M 63.597101 110.559833 L 52.158653 145.077613
M 86.878839 271.507793 L 109.755742 202.472267
M 132.632631 133.436722 L 63.597101 110.559833
M 121.396604 282.946239 L 144.273493 213.910711
M 63.597101 110.559833 L 86.473989 41.524333 '/>
<path class='concave' d=' M 8.224255 195.914914 L 31.303572 241.871119
M 165.128562 117.117194 L 142.049241 71.160969 '/>
<path class='outer' d=' M 86.809757 35.760594 L 114.146295 22.032094 L 118.969935 25.204760 L 125.682074 27.429056 L 145.221907 66.337329 L 142.049241 71.160969 L 147.812980 71.496767 L 167.352813 110.405055 L 165.128562 117.117194 L 164.792794 122.880918 L 137.456271 136.609388 L 132.632631 133.436722 L 121.194187 167.954494 L 125.032323 172.267501 L 115.409973 201.304843 L 109.755742 202.472267 L 144.273493 213.910711 L 167.352798 259.866924 L 121.396604 282.946239 L 86.878839 271.507793 L 86.543056 277.271525 L 59.206541 290.999991 L 54.382890 287.827336 L 47.670762 285.603080 L 28.130920 246.694767 L 31.303572 241.871119 L 25.539842 241.535340 L 6.000000 202.627045 L 8.224255 195.914914 L 8.560031 190.151175 L 35.896556 176.422720 L 40.720205 179.595371 L 52.158653 145.077613 L 48.320509 140.764606 L 57.942863 111.727280 L 63.597101 110.559833 L 29.079334 99.121389 L 6.000016 53.165180 L 51.956224 30.085874 L 86.473989 41.524333 Z '/>
<g><path transform='matrix(4.468193 -2.243937 2.243937 4.468193 144.374716 271.406581)' class='arrow' d='M 0 0 L 1 1 L 0 0.25 L -1 1 Z'/><text transform='translate(146.394256 277.427955)' style='font-size:5.00'><tspan>1</tspan></text></g>
<text transform='matrix(-0.448787 -0.893639 0.893639 -0.448787 42.038958 265.253135)' style='font-size:4.50'><tspan>1</tspan></text>
<g><path transform='matrix(-2.243936 -4.468194 4.468194 -2.243936 155.813145 236.888816)' class='arrow' d='M 0 0 L 1 1 L 0 0.25 L -1 1 Z'/><text transform='translate(159.834522 236.869273)' style='font-size:5.00'><tspan>2</tspan></text></g>
<text transform='matrix(0.448787 0.893639 -0.893639 0.448787 154.393184 93.735185)' style='font-size:4.50'><tspan>2</tspan></text>
<g><path transform='matrix(2.243937 4.468193 -4.468193 2.243937 17.539675 76.143292)' class='arrow' d='M 0 0 L 1 1 L 0 0.25 L -1 1 Z'/><text transform='translate(13.518302 80.162835)' style='font-size:5.00'><tspan>3</tspan></text></g>
<text transform='matrix(-0.448787 -0.893639 0.893639 -0.448787 18.959640 219.296922)' style='font-size:4.50'><tspan>3</tspan></text>
<g><path transform='matrix(-4.468193 2.243937 -2.243937 -4.468193 28.978121 41.625527)' class='arrow' d='M 0 0 L 1 1 L 0 0.25 L -1 1 Z'/><text transform='translate(26.958578 39.604169)' style='font-size:5.00'><tspan>4</tspan></text></g>
<text transform='matrix(0.448787 0.893639 -0.893639 0.448787 131.313878 47.778946)' style='font-size:4.50'><tspan>4</tspan></text>
</g>
</svg>
