<?xml version='1.0' encoding='UTF-8' standalone='no'?>
    <svg xmlns='http://www.w3.org/2000/svg' xmlns:xlink='http://www.w3.org/1999/xlink' version='1.1'
    width='210.00mm' height='297.00mm' viewBox='0 0 210.00 297.00'>
<style type="text/css">
    path {
        fill: none;
        stroke-linecap: butt;
        stroke-linejoin: bevel;
        stroke-dasharray: none;
    }
    path.outer {
        stroke: #000000;
        stroke-dasharray: none;
        stroke-dashoffset: 0;
        stroke-width: 0.3;
        stroke-opacity: 1.0;
    }
    path.convex {
        stroke: #000000;
        stroke-dasharray: 0.50,1.00;
        stroke-dashoffset:0;
        stroke-width:0.2;
        stroke-opacity: 1.0
    }
    path.concave {
        stroke: #000000;
        stroke-dasharray: 1.00,0.50,0.20,0.50;
        stroke-dashoffset: 0;
        stroke-width: 0.2;
        stroke-opacity: 1.0
    }
    path.freestyle {
        stroke: #000000;
        stroke-dasharray: none;
        stroke-dashoffset: 0;
        stroke-width: 0.2;
        stroke-opacity: 1.0
    }
    path.outer_background {
        stroke: #ffffff;
        stroke-opacity: 1.0;
        stroke-width: 0.5
    }
    path.inner_background {
        stroke: #ffffff;
        stroke-opacity: 1.0;
        stroke-width: 0.2
    }
    path.sticker {
        fill: #e5e5e5;
        stroke: none;
        fill-opacity: 1.0;
    }
    path.arrow {
        fill: #000;
    }
    text {
        font-style: normal;
        fill: #000000;
        fill-opacity: 1.0;
        stroke: none;
    }
    text, tspan {
        text-anchor:middle;
    }
    </style>
<g>
<g>
<text transform='translate(64.19264432042837 289.9999909102917)' style='font-size:5.00'><tspan>[1] Island 1</tspan></text>
<path class='sticker' d=' M 118.905420 270.386548 L 118.195239 276.116205 L 97.199428 284.999991 L 92.592495 281.520125 Z
M 14.091533 22.671086 L 16.747916 16.117913 L 35.797521 8.057636 L 40.404457 11.537475 Z
M 80.893005 180.548620 L 86.622658 181.258810 L 95.506455 202.254613 L 92.026594 206.861553 Z
M 40.404457 11.537475 L 46.134113 12.247694 L 54.194420 31.297279 L 51.538034 37.850422 Z
M 99.717963 26.551110 L 103.267263 31.104726 L 94.702768 52.232829 L 88.984544 53.029773 Z
M 70.725503 281.685879 L 63.365317 277.122139 L 51.500383 249.080737 L 54.980247 244.473797 Z
M 65.713665 217.995119 L 63.057280 224.548255 L 44.007677 232.608565 L 39.400741 229.128697 Z
M 36.358691 75.296921 L 30.629034 74.586731 L 11.435147 29.224199 L 14.091533 22.671086 Z
M 107.771846 244.073623 L 113.501499 244.783805 L 122.385289 265.779612 L 118.905420 270.386548 Z
M 6.000000 150.189933 L 6.710184 144.460288 L 54.018910 124.442902 L 58.625846 127.922771 Z
M 92.026594 206.861553 L 97.756247 207.571735 L 111.251715 239.466687 L 107.771846 244.073623 Z
M 92.592495 281.520125 L 86.039360 278.863738 L 78.802544 261.760340 L 81.458922 255.207201 Z '/>
<path class='convex' d=' M 40.404457 11.537475 L 14.091533 22.671086
M 118.905420 270.386548 L 107.771846 244.073623
M 39.400741 229.128697 L 65.713665 217.995119
M 92.592495 281.520125 L 118.905420 270.386548
M 88.984544 53.029773 L 36.358691 75.296921
M 80.893005 180.548620 L 28.267159 202.815776
M 14.091533 22.671086 L 36.358691 75.296921
M 88.984544 53.029773 L 99.717963 26.551110
M 65.713665 217.995119 L 92.026594 206.861553
M 58.625846 127.922771 L 6.000000 150.189933
M 80.893005 180.548620 L 58.625846 127.922771
M 81.458922 255.207201 L 92.592495 281.520125
M 88.984544 53.029773 L 51.538034 37.850422
M 65.713665 217.995119 L 81.458922 255.207201
M 81.458922 255.207201 L 107.771846 244.073623
M 111.251700 105.655638 L 58.625846 127.922771
M 107.771846 244.073623 L 92.026594 206.861553
M 51.538034 37.850422 L 40.404457 11.537475
M 92.026594 206.861553 L 80.893005 180.548620 '/>
<path class='concave' d=' M 54.980247 244.473797 L 70.725503 281.685879 '/>
<path class='outer' d=' M 16.747916 16.117913 L 35.797521 8.057636 L 40.404457 11.537475 L 46.134113 12.247694 L 54.194420 31.297279 L 51.538034 37.850422 L 62.271445 11.371744 L 99.717963 26.551110 L 103.267263 31.104726 L 94.702768 52.232829 L 88.984544 53.029773 L 100.118126 79.342705 L 111.251700 105.655638 L 122.385289 131.968555 L 107.205945 169.415046 L 80.893005 180.548620 L 86.622658 181.258810 L 95.506455 202.254613 L 92.026594 206.861553 L 97.756247 207.571735 L 111.251715 239.466687 L 107.771846 244.073623 L 113.501499 244.783805 L 122.385289 265.779612 L 118.905420 270.386548 L 118.195239 276.116205 L 97.199428 284.999991 L 92.592495 281.520125 L 86.039360 278.863738 L 78.802544 261.760340 L 81.458922 255.207201 L 70.725503 281.685879 L 63.365317 277.122139 L 51.500383 249.080737 L 54.980247 244.473797 L 65.713665 217.995119 L 63.057280 224.548255 L 44.007677 232.608565 L 39.400741 229.128697 L 28.267159 202.815776 L 6.000000 150.189933 L 6.710184 144.460288 L 54.018910 124.442902 L 58.625846 127.922771 L 36.358691 75.296921 L 30.629034 74.586731 L 11.435147 29.224199 L 14.091533 22.671086 Z '/>
<g><path transform='matrix(-1.948375 -4.604763 4.604763 -1.948375 105.684909 92.499149)' class='arrow' d='M 0 0 L 1 1 L 0 0.25 L -1 1 Z'/><text transform='translate(109.829198 92.745614)' style='font-size:5.00'><tspan>1</tspan></text></g>
<text transform='matrix(-0.920952 0.389675 -0.389675 -0.920952 106.099668 276.782193)' style='font-size:4.50'><tspan>1</tspan></text>
<g><path transform='matrix(1.948376 4.604762 -4.604762 1.948376 33.833950 215.972242)' class='arrow' d='M 0 0 L 1 1 L 0 0.25 L -1 1 Z'/><text transform='translate(29.689665 219.725777)' style='font-size:5.00'><tspan>2</tspan></text></g>
<text transform='matrix(0.920952 -0.389676 0.389676 0.920952 26.897284 16.275448)' style='font-size:4.50'><tspan>2</tspan></text>
<text transform='matrix(0.389675 0.920952 -0.920952 0.389675 46.800098 24.343234)' style='font-size:4.50'><tspan>2:1</tspan></text>
<g><path transform='matrix(-1.878348 4.633769 -4.633769 -1.878348 60.346956 231.234462)' class='arrow' d='M 0 0 L 1 1 L 0 0.25 L -1 1 Z'/><text transform='translate(56.176565 231.543948)' style='font-size:5.00'><tspan>3</tspan></text></g>
<g><path transform='matrix(-4.633769 -1.878348 1.878348 -4.633769 80.994713 18.961382)' class='arrow' d='M 0 0 L 1 1 L 0 0.25 L -1 1 Z'/><text transform='translate(82.685228 16.790998)' style='font-size:5.00'><tspan>4</tspan></text></g>
<text transform='matrix(-0.389675 -0.920952 0.920952 -0.389675 62.024015 263.430548)' style='font-size:4.50'><tspan>4</tspan></text>
<text transform='matrix(-0.920952 0.389675 -0.389675 -0.920952 52.907906 224.390765)' style='font-size:4.50'><tspan>2:2</tspan></text>
<g><path transform='matrix(-1.878347 4.633769 -4.633769 -1.878347 56.904740 24.611098)' class='arrow' d='M 0 0 L 1 1 L 0 0.25 L -1 1 Z'/><text transform='translate(52.734348 24.920595)' style='font-size:5.00'><tspan>5</tspan></text></g>
</g>
<g>
<text transform='translate(142.17100571841002 289.9999909102917)' style='font-size:5.00'><tspan>[2] Island 2</tspan></text>
<path class='sticker' d=' M 128.385293 250.428562 L 133.385289 245.428563 L 154.069978 245.428567 L 156.956720 250.428566 Z
M 156.956720 250.428566 L 161.956715 253.315319 L 161.956715 275.464459 L 156.956720 278.999992 Z '/>
<path class='concave' d=' M 156.956720 250.428566 L 128.385293 250.428562
M 156.956720 278.999992 L 156.956720 250.428566 '/>
<path class='outer' d=' M 128.385293 250.428562 L 133.385289 245.428563 L 154.069978 245.428567 L 156.956720 250.428566 L 161.956715 253.315319 L 161.956715 275.464459 L 156.956720 278.999992 L 128.385293 278.999990 Z '/>
<g><path transform='matrix(5.000000 0.000000 -0.000000 5.000000 142.671007 278.999991)' class='arrow' d='M 0 0 L 1 1 L 0 0.25 L -1 1 Z'/><text transform='translate(142.671007 285.499991)' style='font-size:5.00'><tspan>1</tspan></text></g>
<text transform='matrix(1.000000 0.000000 -0.000000 1.000000 142.671007 249.528562)' style='font-size:4.50'><tspan>1:3</tspan></text>
<g><path transform='matrix(-0.000001 5.000000 -5.000000 -0.000001 128.385293 264.714275)' class='arrow' d='M 0 0 L 1 1 L 0 0.25 L -1 1 Z'/><text transform='translate(123.885292 266.714276)' style='font-size:5.00'><tspan>2</tspan></text></g>
<text transform='matrix(-0.000000 1.000000 -1.000000 -0.000000 157.856720 264.714279)' style='font-size:4.50'><tspan>1:5</tspan></text>
</g>
</g>
</svg>
