<?xml version='1.0' encoding='UTF-8' standalone='no'?>
    <svg xmlns='http://www.w3.org/2000/svg' xmlns:xlink='http://www.w3.org/1999/xlink' version='1.1'
    width='210.00mm' height='297.00mm' viewBox='0 0 210.00 297.00'>
<style type="text/css">
    path {
        fill: none;
        stroke-linecap: butt;
        stroke-linejoin: bevel;
        stroke-dasharray: none;
    }
    path.outer {
        stroke: #000000;
        stroke-dasharray: none;
        stroke-dashoffset: 0;
        stroke-width: 0.3;
        stroke-opacity: 1.0;
    }
    path.convex {
        stroke: #000000;
        stroke-dasharray: 0.50,1.00;
        stroke-dashoffset:0;
        stroke-width:0.2;
        stroke-opacity: 1.0
    }
    path.concave {
        stroke: #000000;
        stroke-dasharray: 1.00,0.50,0.20,0.50;
        stroke-dashoffset: 0;
        stroke-width: 0.2;
        stroke-opacity: 1.0
    }
    path.freestyle {
        stroke: #000000;
        stroke-dasharray: none;
        stroke-dashoffset: 0;
        stroke-width: 0.2;
        stroke-opacity: 1.0
    }
    path.outer_background {
        stroke: #ffffff;
        stroke-opacity: 1.0;
        stroke-width: 0.5
    }
    path.inner_background {
        stroke: #ffffff;
        stroke-opacity: 1.0;
        stroke-width: 0.2
    }
    path.sticker {
        fill: #e5e5e5;
        stroke: none;
        fill-opacity: 1.0;
    }
    path.arrow {
        fill: #000;
    }
    text {
        font-style: normal;
        fill: #000000;
        fill-opacity: 1.0;
        stroke: none;
    }
    text, tspan {
        text-anchor:middle;
    }
    </style>
<g>
<path class='sticker' d=' M 172.631422 84.397694 L 169.469142 90.722254 L 122.740695 106.298393 L 118.420938 102.467855 Z
M 136.491099 156.678325 L 142.815659 159.840604 L 158.391828 206.569066 L 154.561276 210.888816 Z
M 172.631422 265.099283 L 169.469142 271.423839 L 122.740695 286.999991 L 118.420953 283.169447 Z
M 100.350792 48.257371 L 101.508254 42.601099 L 148.236701 27.024945 L 154.561261 30.187210 Z
M 10.000000 138.608178 L 11.157477 132.951891 L 57.885921 117.375737 L 64.210473 120.538017 Z
M 118.420953 283.169447 L 112.096393 280.007169 L 96.520239 233.278720 L 100.350792 228.958977 Z
M 100.350792 228.958977 L 94.694505 227.801500 L 79.118351 181.073053 L 82.280630 174.748493 Z '/>
<path class='convex' d=' M 154.561276 210.888816 L 136.491099 156.678325
M 100.350792 228.958977 L 118.420953 283.169447
M 118.420938 102.467855 L 172.631422 84.397694
M 64.210473 120.538017 L 82.280630 174.748493
M 118.420953 283.169447 L 172.631422 265.099283
M 136.491099 156.678325 L 82.280630 174.748493
M 154.561261 30.187210 L 100.350792 48.257371
M 64.210473 120.538017 L 10.000000 138.608178
M 118.420938 102.467855 L 100.350792 48.257371
M 118.420938 102.467855 L 64.210473 120.538017
M 82.280630 174.748493 L 100.350792 228.958977
M 154.561276 210.888816 L 100.350792 228.958977 '/>
<path class='outer' d=' M 169.469142 271.423839 L 122.740695 286.999991 L 118.420953 283.169447 L 112.096393 280.007169 L 96.520239 233.278720 L 100.350792 228.958977 L 94.694505 227.801500 L 79.118351 181.073053 L 82.280630 174.748493 L 28.070161 192.818662 L 10.000000 138.608178 L 11.157477 132.951891 L 57.885921 117.375737 L 64.210473 120.538017 L 46.140319 66.327548 L 100.350792 48.257371 L 101.508254 42.601099 L 148.236701 27.024945 L 154.561261 30.187210 L 172.631422 84.397694 L 169.469142 90.722254 L 122.740695 106.298393 L 118.420938 102.467855 L 136.491099 156.678325 L 142.815659 159.840604 L 158.391828 206.569066 L 154.561276 210.888816 L 172.631422 265.099283 Z '/>
<g><path transform='matrix(-4.743416 1.581139 -1.581139 -4.743416 73.245550 57.292467)' class='arrow' d='M 0 0 L 1 1 L 0 0.25 L -1 1 Z'/><text transform='translate(71.822526 55.023393)' style='font-size:5.00'><tspan>1</tspan></text></g>
<text transform='matrix(-0.948683 0.316228 -0.316228 -0.948683 145.810792 274.988180)' style='font-size:4.50'><tspan>1</tspan></text>
<g><path transform='matrix(1.581139 4.743416 -4.743416 1.581139 19.035080 165.713428)' class='arrow' d='M 0 0 L 1 1 L 0 0.25 L -1 1 Z'/><text transform='translate(14.766006 169.136448)' style='font-size:5.00'><tspan>2</tspan></text></g>
<text transform='matrix(-0.316228 -0.948683 0.948683 -0.316228 108.532051 256.348815)' style='font-size:4.50'><tspan>2</tspan></text>
</g>
</svg>
